Learning analytics methods and tutorials - 6 Visualizing and Reporting Educational Data with R
…
And import it so we can use its functions:

library(rio)

Now we can download the data using the import function from rio and assign it to a variable named df (short for dataframe).

demo_url = "https://github.com/sonsoleslp/labook-data/raw/main/1_moodleLAcourse/AllCombined.xlsx"
df <- import(demo_url)

We can use the head command to get an idea of what the dataset looks like. To recreate the plot above we will need the AchievingGroup column —which indicates whether students’ are high achievers (to 50%) or low achievers (bottom 50%), according to their final grade— and the ActivityGroup column —which indicates whether students have a high level of activity (top 33%), moderate activity (middle 33%), or low activity (bottom 33%), according to their total number of events in the LMS.

head(df)

# A tibble: 130 × 37
   User      Name   Gender ActivityGroup AchievingGroup Surname Origin Birthdate
   <chr>     <chr>  <chr>  <chr>         <chr>          <chr>   <chr>  <chr>    
 1 00a05cc62 Wan    M      Low activity  Low achiever   Tan     Malay… 12.12.19…
 2 042b07ba1 Daniel M      High activity Low achiever   Tromp   Aruba  28.5.1999
 3 046c35846 Sarah  F      Low activity  Low achiever   Schmit  Luxem… 25.4.1997
 4 05b604102 Lian   F      Low activity  Low achiever   Abdull… Yemen  19.11.19…
 5 0604ff3d3 Nina   F      Low activity  Low achiever   Borg    Malta  13.6.1994
 6 077584d71 Moham… M      High activity High achiever  Gamal   Egypt  13.7.1998
 7 081b100cf Maxim… M      Moderate act… High achiever  Gruber  Austr… 20.12.19…
 8 0857b3d8e Hugo   M      High activity High achiever  Pérez   Spain  22.12.19…
 9 0af619e4b Aylin  F      Low activity  Low achiever   Barat   Kazak… 14.8.1995
10 0ec99ce96 Polina F      Moderate act… Low achiever   Novik   Belar… 9.10.1996
# ℹ 120 more rows
# ℹ 29 more variables: Location <chr>, Employment <chr>,
#   Frequency.Applications <dbl>, Frequency.Assignment <dbl>,
#   Frequency.Course_view <dbl>, Frequency.Feedback <dbl>,
#   Frequency.General <dbl>, Frequency.Group_work <dbl>,
#   Frequency.Instructions <dbl>, Frequency.La_types <dbl>,
#   Frequency.Practicals <dbl>, Frequency.Social <dbl>, …
…
Figure 22: Basic bar plot of students by achievement group filled by activity level with position dodge instead of stacked

We can now see that the highest group is represented by the low achievers with low activity, followed by the high achievers with high activity.

6.2 Histogram

Histograms allow us to represent the distribution of a single continuous variable. It is inherently a bar chart, but instead of each bar representing the count of a single category, it represents the count of a range of values in the x-axis (what is known as a bin). Let us, for example, create a histogram for students’ online activity. Specifically, let us see the distribution of the number of accesses to the course main page online.

If we look at our dataset, we can see that the name of the variable that we are interested in is Frequency.Course_view:

head(df)

# A tibble: 130 × 37
   User      Name       Surname  Origin     Gender Birthdate Location Employment
   <chr>     <chr>      <chr>    <chr>      <chr>  <chr>     <chr>    <chr>     
 1 00a05cc62 Wan        Tan      Malaysia   M      12.12.19… Remote   None      
 2 042b07ba1 Daniel     Tromp    Aruba      M      28.5.1999 Remote   None      
 3 046c35846 Sarah      Schmit   Luxembourg F      25.4.1997 On camp… None      
 4 05b604102 Lian       Abdullah Yemen      F      19.11.19… On camp… None      
 5 0604ff3d3 Nina       Borg     Malta      F      13.6.1994 On camp… None      
 6 077584d71 Mohamed    Gamal    Egypt      M      13.7.1998 On camp… Part-time 
 7 081b100cf Maximilian Gruber   Austria    M      20.12.19… On camp… None      
 8 0857b3d8e Hugo       Pérez    Spain      M      22.12.19… On camp… None      
 9 0af619e4b Aylin      Barat    Kazakhstan F      14.8.1995 On camp… None      
10 0ec99ce96 Polina     Novik    Belarus    F      9.10.1996 On camp… None      
# ℹ 120 more rows
# ℹ 29 more variables: Frequency.Applications <dbl>,
#   Frequency.Assignment <dbl>, Frequency.Course_view <dbl>,
#   Frequency.Feedback <dbl>, Frequency.General <dbl>,
#   Frequency.Group_work <dbl>, Frequency.Instructions <dbl>,
#   Frequency.La_types <dbl>, Frequency.Practicals <dbl>,
#   Frequency.Social <dbl>, Frequency.Ethics <dbl>, Frequency.Theory <dbl>, …
…
The histogram allows us to acknowledge that most students had around 400-500 events, with another peak around 900-1000. Students with more than 1000 events were rare.

6.3 Line plot

Another very widely used type of plot is the line plot. Like the histogram, it is also appropriate when we have both a numerical continuous x-axis and y-axis but it gives us a bit more liberty of what we plot and it is suitable for when we want to plot several series of data together. A very common scenario for a line plot is when we deal with timelines and we wish to visualize the evolution of a certain variable over time. Let us, for instance, plot the students’ daily events in the LMS throughout the course, a common plot in learning analytics dashboards. In the dataset that we have been using, we have the total count of events per user but not the timestamp of each event. We need to import the original event data from the dataset:

ev_url <- "https://github.com/sonsoleslp/labook-data/raw/main/1_moodleLAcourse/Events.xlsx"
events <- import(ev_url)

The Events.xlsx file contains all the actions that the students enrolled in this course performed in the LMS (Action) with their corresponding timestamp (timecreated): clicking on a lecture file, viewing the assignment instructions, etc.

head(events)

# A tibble: 95,626 × 7
   Event.context     user  timecreated         Component Event.name Log   Action
   <chr>             <chr> <dttm>              <chr>     <chr>      <chr> <chr> 
 1 Assignment: Fina… 9d74… 2019-10-26 09:37:12 Assignme… Course mo… Assi… Assig…
 2 Assignment: Fina… 9148… 2019-10-26 09:09:34 Assignme… The statu… Assi… Assig…
 3 Assignment: Fina… 278a… 2019-10-18 12:05:28 Assignme… Course mo… Assi… Assig…
 4 Assignment: Fina… 53d6… 2019-10-19 13:28:37 Assignme… The statu… Assi… Assig…
 5 Assignment: Fina… aab7… 2019-10-15 23:38:13 Assignme… Course mo… Assi… Assig…
 6 Assignment: Fina… 82ed… 2019-10-18 17:51:43 Assignme… Course mo… Assi… Assig…
 7 Assignment: Fina… 4178… 2019-10-18 15:22:56 Assignme… Course mo… Assi… Assig…
 8 Assignment: Fina… 82ed… 2019-10-22 13:46:51 Assignme… The statu… Assi… Assig…
 9 Assignment: Fina… f2e9… 2019-10-15 14:58:17 Assignme… Submissio… Assi… Assig…
10 Assignment: Fina… 53d6… 2019-10-19 13:28:38 Assignme… Course mo… Assi… Assig…
# ℹ 95,616 more rows
…
