Advanced learning analytics methods - 10 Using BERT-like Language Models for Automated Discourse Coding: A Primer and Tutorial
…
If we inspect the generated embeddings, we see that there are 1,612 rows in the texts of the training embeddings: one per row of the training dataset. However, instead of one column with the text, we have a large number of numerical columns that represent the text. For example, in BERT, we have 768, which corresponds to the size of the BERT token embedding vector.

as_tibble(word_embeddings_bert$texts$texts)

# A tibble: 1,612 × 768
   Dim1_texts Dim2_texts Dim3_texts Dim4_texts Dim5_texts Dim6_texts Dim7_texts
        <dbl>      <dbl>      <dbl>      <dbl>      <dbl>      <dbl>      <dbl>
 1      0.528    -0.0955     0.0600     0.124      0.533      -0.420     0.0723
 2      0.507    -0.0987     0.0220    -0.188      0.181      -0.655     0.356 
 3      0.448    -0.0161     0.257     -0.485     -0.310      -0.194     0.190 
 4     -0.117    -0.318      0.418     -0.119      0.216      -0.511     0.287 
 5     -0.629    -0.0899     0.0623    -0.0132     0.143       0.292    -0.210 
 6      0.421    -0.211      0.318      0.104     -0.0157     -0.366     0.231 
 7      0.615     0.0502     0.561     -0.406      0.0821     -0.309    -0.0774
 8      0.126     0.0952     0.146      0.113     -0.318      -0.142    -0.350 
 9      0.287     0.0764     0.261     -0.0609     0.0596     -0.345     0.0266
10      0.547    -0.272      0.163      0.0564    -0.197      -0.391     0.0832
# ℹ 1,602 more rows
# ℹ 761 more variables: Dim8_texts <dbl>, Dim9_texts <dbl>, Dim10_texts <dbl>,
#   Dim11_texts <dbl>, Dim12_texts <dbl>, Dim13_texts <dbl>, Dim14_texts <dbl>,
#   Dim15_texts <dbl>, Dim16_texts <dbl>, Dim17_texts <dbl>, Dim18_texts <dbl>,
#   Dim19_texts <dbl>, Dim20_texts <dbl>, Dim21_texts <dbl>, Dim22_texts <dbl>,
#   Dim23_texts <dbl>, Dim24_texts <dbl>, Dim25_texts <dbl>, Dim26_texts <dbl>,
#   Dim27_texts <dbl>, Dim28_texts <dbl>, Dim29_texts <dbl>, …
…
