Learning analytics methods and tutorials - 15 Social Network Analysis: A primer, a guide and a tutorial in R
…
3.4 Individual vertex measures (centrality measures)

We have discussed the centrality measures in the introductory section and how they can be used in an educational context. Centrality measures may serve many functions, —e.g., indicators of performance in collaborative environments [49] or indicators for roles in collaboration [21]. The igraph package allows the calculation of several centrality measures, many of which have been used in educational research and some of which may not be relevant. Other packages, such as centiserve, allow an even larger number of centrality measures [50]. In this section, we will focus on the common centrality measures according to the recent meta-analysis by [49] and other recently used measures, such as diffusion centrality measures.

Degree centrality measures can be computed using the function degree and the argument mode specifies the type of degree where mode="in" returns in-degree, mode="out" returns out-degree, mode="total" returns total degree centrality. In case of undirected networks, the mode argument is ignored and the function returns only the degree centrality, since there is no direction. We can combine all the centralities that we calculate together in a dataframe using the tibble function from the tibble package.

InDegree  <- degree(DLT1, mode = "in")
OutDegree <- degree(DLT1, mode = "out")
Degree    <- degree(DLT1, mode = "total")
Degree_df <- tibble::tibble(name = V(DLT1)$name, InDegree, OutDegree, Degree)
print(Degree_df)

# A tibble: 445 × 4
   name  InDegree OutDegree Degree
   <chr>    <dbl>     <dbl>  <dbl>
 1 1           20        33     53
 2 2            2         5      7
 3 3            2         4      6
 4 4            2        14     16
 5 5           16        17     33
 6 6            9        24     33
 7 7           32        26     58
 8 8           13        18     31
 9 9            2        12     14
10 10           8        12     20
# ℹ 435 more rows

Note that igraph has another function called graph.strength that computes the degree centrality and takes the edge weight attribute into account. In multigraph networks —like ours— degree centrality and graph.strength should return the same result. However, in networks where the edges have a weight attribute both functions (degree and graph.strength) return different results. In such weighted networks —like the simplified network we created in the previous example— the degree function will return the unique connections of every vertex or the size of the vertex direct collaborators —known as the size of the ego network. The graph.strength function will return the number of interactions a vertex has made. See the next example and compare the results. For more information about the different calculation methods of degree centrality of weighted networks, readers are advised to refer to the seminal article by [51].

InStrength  <- graph.strength(DLT1, mode = "in")
OutStrength <- graph.strength(DLT1,mode = "out")
Strength    <- graph.strength(DLT1, mode = "total")
Strength_df <- tibble::tibble(name=V(DLT1)$name,InStrength,OutStrength,Strength)
print(Strength_df)

# A tibble: 445 × 4
   name  InStrength OutStrength Strength
   <chr>      <dbl>       <dbl>    <dbl>
 1 1             20          33       53
 2 2              2           5        7
 3 3              2           4        6
 4 4              2          14       16
 5 5             16          17       33
 6 6              9          24       33
 7 7             32          26       58
 8 8             13          18       31
 9 9              2          12       14
10 10             8          12       20
# ℹ 435 more rows
…
Coreness and cross-clique connectivity are related centralities that estimate the embeddedness of the vertex in the network can be calculated using the functions coreness and crossclique. Both coreness and crossclique centralities have been shown to better correlate with performance as well as with productive and reply-worthy content [19].

Coreness <- coreness(DLT1)
Cross_clique_connectivity <- crossclique(DLT1)

Warning in cliques(graph): At core/cliques/cliquer_wrapper.c:57 : Edge
directions are ignored for clique calculations.

We can also combine the rest of the centralities together in a single dataframe:

Centdf  <- tibble::tibble(name=V(DLT1)$name,Closeness_total,Betweenness,
Eigen,Pagerank,Diffusion.degree,Coreness,Cross_clique_connectivity)
print(Centdf)

# A tibble: 445 × 8
   name  Closeness_total Betweenness   Eigen Pagerank Diffusion.degree Coreness
   <chr>           <dbl>       <dbl>   <dbl>    <dbl>            <dbl>    <dbl>
 1 1            0.00110       1258.  0.206    0.00840             1865       18
 2 2            0.000808        26.5 0.0107   0.00140              218        6
 3 3            0.000799        30.6 0.00862  0.00130              191        6
 4 4            0.00102         72.5 0.0803   0.00273              965       13
 5 5            0.00106        309.  0.162    0.00525             1508       18
 6 6            0.00108        250.  0.155    0.00539             1607       18
 7 7            0.00111       1935.  0.230    0.00931             2088       21
 8 8            0.00106        164.  0.136    0.00503             1483       18
 9 9            0.00104         69.5 0.119    0.00251             1216       13
10 10           0.00106        716.  0.0875   0.00343             1432       17
# ℹ 435 more rows
# ℹ 1 more variable: Cross_clique_connectivity <int>
…
