Learning analytics methods and tutorials - 19 Psychological Networks: A Modern Approach to Analysis of Learning and Complex Learning Processes
…
We can now keep only the newly created columns. We also create subsets of the data based on gender (a dataset for males and another for females) and country (a data set for Austria and another for Finland). We will use these datasets later for comparison acorss genders and countries.

cols <- c("Relatedness", "Competence", "Autonomy", "Emotion", "Motivation", "SRL")

filter(aggregated, country == 1) |> select(all_of(cols)) -> finlandData 
filter(aggregated, country == 0) |> select(all_of(cols)) -> austriaData 
filter(aggregated, gender  == 1) |> select(all_of(cols)) -> femaleData 
filter(aggregated, gender  == 2) |> select(all_of(cols)) -> maleData
select(aggregated, all_of(cols)) -> allData 

The allData dataframe should look as follows:

allData

# A tibble: 7,160 × 6
# Rowwise: 
   Relatedness Competence Autonomy Emotion Motivation   SRL
         <dbl>      <dbl>    <dbl>   <dbl>      <dbl> <dbl>
 1        3          2.33     2.33    2          1.33  2.67
 2        5          3        1.67    2.33       2     4.33
 3        4.67       4        2.67    4          3     4.33
 4        4.33       3.33     3       3.33       2.67  2.67
 5        5          4        3       4          3     4.33
 6        4          2.67     2.67    3.33       2.67  5   
 7        4.67       4.33     3.33    4.67       4.33  4.67
 8        2.33       3.67     2.67    5          1.33  2.67
 9        3          3.33     3       3.67       2     4   
10        3.67       2.67     2.33    3.33       1     2.67
# ℹ 7,150 more rows
…
